[gd_scene load_steps=4 format=2]

[ext_resource path="res://scripts/danger/Danger.gd" type="Script" id=1]
[ext_resource path="res://imgs/imgs_level1_3/sheet_temple.png" type="Texture" id=2]

[sub_resource type="RectangleShape2D" id=1]
extents = Vector2( 15, 7 )

[node name="Spikes" type="Area2D"]
editor/display_folded = true
position = Vector2( 0, -16 )
collision_layer = 8
collision_mask = 8
script = ExtResource( 1 )
__meta__ = {
"_edit_group_": true
}

[node name="Sprite" type="Sprite" parent="."]
texture = ExtResource( 2 )
vframes = 10
hframes = 10
frame = 40

[node name="CollisionShape2D" type="CollisionShape2D" parent="."]
position = Vector2( 0, 8 )
shape = SubResource( 1 )
[connection signal="body_entered" from="." to="." method="_on_Spikes_body_entered"]
