[gd_scene load_steps=3 format=2]

[ext_resource path="res://imgs/imgs_platformer_levels/bars.png" type="Texture" id=1]
[ext_resource path="res://scripts/platformers_basics/energy_pixel.gd" type="Script" id=2]

[node name="Sprite" type="Sprite"]
texture = ExtResource( 1 )
script = ExtResource( 2 )
