[gd_scene load_steps=4 format=2]

[ext_resource path="res://scripts/switch/Switch_block.gd" type="Script" id=1]
[ext_resource path="res://imgs/imgs_level1_1/sheet_1.png" type="Texture" id=2]
[ext_resource path="res://hitboxes/square.tres" type="Shape2D" id=3]













[node name="Switch_block_a" type="StaticBody2D"]
script = ExtResource( 1 )
__meta__ = {
"_edit_group_": true
}

[node name="Sprite" type="Sprite" parent="."]
texture = ExtResource( 2 )
vframes = 6
hframes = 6
frame = 28

[node name="CollisionShape2D" type="CollisionShape2D" parent="."]
shape = ExtResource( 3 )
