[gd_scene load_steps=5 format=2]

[ext_resource path="res://scripts/gems/Gems_parent.gd" type="Script" id=1]
[ext_resource path="res://sounds/gems1.ogg" type="AudioStream" id=2]
[ext_resource path="res://sounds/gems2.ogg" type="AudioStream" id=3]
[ext_resource path="res://sounds/gems3.ogg" type="AudioStream" id=4]

[node name="Gems_parent" type="Node2D"]
script = ExtResource( 1 )

[node name="Sound1" type="AudioStreamPlayer" parent="."]
stream = ExtResource( 2 )
volume_db = -5.0

[node name="Sound10" type="AudioStreamPlayer" parent="."]
stream = ExtResource( 3 )
volume_db = -3.0

[node name="Sound100" type="AudioStreamPlayer" parent="."]
stream = ExtResource( 4 )
volume_db = 3.0
